// Jest Snapshot v1, https://goo.gl/fbAQLP

exports[`SearchPanel Should render 1`] = `
<Panel
  className="search-panel"
>
  <form
    onSubmit={[Function]}
  >
    <Input
      disabled={false}
      onChange={[Function]}
      placeholder="id użytkownika"
      value=""
    />
    <Button
      disabled={false}
      type="submit"
    >
      Szukaj (ostatnio: 
      nigdy
      )
    </Button>
  </form>
</Panel>
`;
